{
    "db": {
        "url": "mongodb://localhost:27017",
        "database": "visionreality"
    },
    "app": {
        "url": "http://72.167.44.37",
        "port": 4601
    },
    "webServer": {
        "url": "http://72.167.44.37/",
        "port": 4601
    },
    "auth": {
        "jwtKey": "supersecret"
    },
    "image": {
        "url": "http://72.167.44.37/vision_reality_nodejs/",
        "port": 4601
    },
    "providers": {},
    "logger": {
        "logStart": false,
        "console": {
            "level": "debug",
            "handleExceptions": true,
            "json": false,
            "colorize": true
        },
        "http": {}
    }
}